<?xml version="1.0" encoding="UTF-8" standalone="no"?>
<!-- Created with Inkscape (http://www.inkscape.org/) -->

<svg
   xmlns:dc="http://purl.org/dc/elements/1.1/"
   xmlns:cc="http://creativecommons.org/ns#"
   xmlns:rdf="http://www.w3.org/1999/02/22-rdf-syntax-ns#"
   xmlns:svg="http://www.w3.org/2000/svg"
   xmlns="http://www.w3.org/2000/svg"
   xmlns:sodipodi="http://sodipodi.sourceforge.net/DTD/sodipodi-0.dtd"
   xmlns:inkscape="http://www.inkscape.org/namespaces/inkscape"
   width="390"
   height="97"
   id="svg2"
   version="1.1"
   inkscape:version="0.48.4 r9939"
   sodipodi:docname="logo.svg">
  <defs
     id="defs4">
    <clipPath
       clipPathUnits="userSpaceOnUse"
       id="clipPath2998">
      <rect
         style="fill:#f9f9f9;fill-opacity:1;stroke:none"
         id="rect3000"
         width="524.28571"
         height="161.42857"
         x="-144.28572"
         y="332.36218" />
    </clipPath>
    <clipPath
       clipPathUnits="userSpaceOnUse"
       id="clipPath3772">
      <rect
         style="fill:#f9f9f9;fill-opacity:0.49392712;stroke:none"
         id="rect3774"
         width="475.78186"
         height="120.20816"
         x="-120.84405"
         y="349.5462" />
    </clipPath>
  </defs>
  <sodipodi:namedview
     id="base"
     pagecolor="#ffffff"
     bordercolor="#666666"
     borderopacity="1.0"
     inkscape:pageopacity="0.0"
     inkscape:pageshadow="2"
     inkscape:zoom="0.51244065"
     inkscape:cx="74.630878"
     inkscape:cy="91.615245"
     inkscape:document-units="px"
     inkscape:current-layer="layer1"
     showgrid="false"
     inkscape:window-width="1440"
     inkscape:window-height="844"
     inkscape:window-x="0"
     inkscape:window-y="27"
     inkscape:window-maximized="1" />
  <metadata
     id="metadata7">
    <rdf:RDF>
      <cc:Work
         rdf:about="">
        <dc:format>image/svg+xml</dc:format>
        <dc:type
           rdf:resource="http://purl.org/dc/dcmitype/StillImage" />
        <dc:title />
      </cc:Work>
    </rdf:RDF>
  </metadata>
  <g
     inkscape:groupmode="layer"
     id="layer2"
     inkscape:label="Capa" />
  <g
     inkscape:label="Capa 1"
     inkscape:groupmode="layer"
     id="layer1"
     transform="translate(0,-955.36218)">
    <g
       id="g3796"
       transform="matrix(0.70995444,0.70995444,-0.70995444,0.70995444,223.25475,678.77038)"
       style="fill:#ffffff">
      <rect
         y="311.11325"
         x="78.791901"
         height="20"
         width="20"
         id="rect3776"
         style="fill:#ffffff;fill-opacity:1;stroke:none" />
      <rect
         style="fill:#ffffff;fill-opacity:1;stroke:none"
         id="rect3778"
         width="20"
         height="20"
         x="78.791901"
         y="311.11325" />
      <rect
         y="335.11325"
         x="102.7919"
         height="20"
         width="20"
         id="rect3780"
         style="fill:#ffffff;fill-opacity:1;stroke:none" />
      <rect
         style="fill:#ffffff;fill-opacity:1;stroke:none"
         id="rect3782"
         width="20"
         height="20"
         x="126.7919"
         y="335.11325" />
      <rect
         y="359.11325"
         x="126.7919"
         height="20"
         width="20"
         id="rect3784"
         style="fill:#ffffff;fill-opacity:1;stroke:none" />
      <rect
         style="fill:#ffffff;fill-opacity:1;stroke:none"
         id="rect3786"
         width="20"
         height="20"
         x="102.7919"
         y="359.11325" />
      <rect
         y="311.11325"
         x="102.7919"
         height="20"
         width="20"
         id="rect3788"
         style="fill:#ffffff;fill-opacity:1;stroke:none" />
      <rect
         style="fill:#ffffff;fill-opacity:1;stroke:none"
         id="rect3790"
         width="20"
         height="20"
         x="78.791901"
         y="335.11325" />
      <rect
         y="359.11325"
         x="78.791901"
         height="20"
         width="20"
         id="rect3792"
         style="fill:#ffffff;fill-opacity:1;stroke:none" />
      <rect
         style="fill:#ffffff;fill-opacity:1;stroke:none"
         id="rect3794"
         width="20"
         height="20"
         x="126.7919"
         y="311.11325" />
    </g>
    <g
       style="fill:#58bd00;fill-opacity:1"
       transform="matrix(0.70995444,0.70995444,-0.70995444,0.70995444,213.21448,678.77038)"
       id="g3808">
      <rect
         style="fill:#58bd00;fill-opacity:1;stroke:none"
         id="rect3810"
         width="20"
         height="20"
         x="78.791901"
         y="311.11325" />
      <rect
         y="311.11325"
         x="78.791901"
         height="20"
         width="20"
         id="rect3812"
         style="fill:#58bd00;fill-opacity:1;stroke:none" />
      <rect
         style="fill:#58bd00;fill-opacity:1;stroke:none"
         id="rect3814"
         width="20"
         height="20"
         x="102.7919"
         y="335.11325" />
      <rect
         y="335.11325"
         x="126.7919"
         height="20"
         width="20"
         id="rect3816"
         style="fill:#58bd00;fill-opacity:1;stroke:none" />
      <rect
         style="fill:#58bd00;fill-opacity:1;stroke:none"
         id="rect3818"
         width="20"
         height="20"
         x="126.7919"
         y="359.11325" />
      <rect
         y="359.11325"
         x="102.7919"
         height="20"
         width="20"
         id="rect3820"
         style="fill:#58bd00;fill-opacity:1;stroke:none" />
      <rect
         style="fill:#58bd00;fill-opacity:1;stroke:none"
         id="rect3822"
         width="20"
         height="20"
         x="102.7919"
         y="311.11325" />
      <rect
         y="335.11325"
         x="78.791901"
         height="20"
         width="20"
         id="rect3824"
         style="fill:#58bd00;fill-opacity:1;stroke:none" />
      <rect
         style="fill:#58bd00;fill-opacity:1;stroke:none"
         id="rect3826"
         width="20"
         height="20"
         x="78.791901"
         y="359.11325" />
      <rect
         y="311.11325"
         x="126.7919"
         height="20"
         width="20"
         id="rect3828"
         style="fill:#58bd00;fill-opacity:1;stroke:none" />
    </g>
    <path
       id="path3984"
       style="font-size:55.26883316px;font-style:normal;font-variant:normal;font-weight:normal;font-stretch:normal;line-height:125%;letter-spacing:0px;word-spacing:0px;fill:#ffffff;fill-opacity:1;stroke:#fbffff;stroke-width:1.45236373;stroke-opacity:1;font-family:Roboto;-inkscape-font-specification:Roboto"
       d="m 375.75346,1019.7034 c 1.56521,0 3.04948,-0.4048 4.45281,-1.2144 1.40329,-0.8096 2.41979,-1.8621 3.0495,-3.1575 l 0,-5.9911 -3.91308,0 c -6.117,10e-5 -9.1755,1.7902 -9.17549,5.3704 -10e-6,1.5652 0.52174,2.7886 1.56523,3.6702 1.04348,0.8816 2.38382,1.3224 4.02103,1.3224 m 8.28492,3.8051 c -0.28788,-0.5757 -0.52176,-1.6012 -0.70165,-3.0765 -2.32088,2.4108 -5.09152,3.6162 -8.31192,3.6162 -2.87859,0 -5.24443,-0.8096 -7.09751,-2.4288 -1.8351,-1.6372 -2.75265,-3.7062 -2.75265,-6.2069 0,-3.0405 1.15143,-5.3974 3.45431,-7.0706 2.32085,-1.6911 5.57724,-2.5367 9.7692,-2.5367 l 4.85761,0 0,-2.2939 c -2e-5,-1.7451 -0.52177,-3.1304 -1.56523,-4.15594 -1.04351,-1.04347 -2.58175,-1.56521 -4.61473,-1.56523 -1.78114,2e-5 -3.27441,0.4498 -4.4798,1.34933 -1.20542,0.89954 -1.80812,1.98804 -1.80811,3.26544 l -5.01954,0 c 0,-1.4573 0.51275,-2.86061 1.53825,-4.20997 1.04348,-1.3673 2.44679,-2.44677 4.20993,-3.23841 1.78111,-0.79158 3.73315,-1.18739 5.85612,-1.18742 3.36433,3e-5 6.00003,0.84562 7.90711,2.53676 1.90704,1.6732 2.89655,3.98504 2.96854,6.93554 l 0,13.4394 c -2e-5,2.6807 0.34181,4.8127 1.0255,6.3959 l 0,0.4318 -5.23543,0" />
    <path
       inkscape:connector-curvature="0"
       id="path3982"
       d="m 348.79371,1019.9732 c 1.7811,0 3.33734,-0.5397 4.6687,-1.6192 1.33133,-1.0794 2.06896,-2.4288 2.21292,-4.048 l 4.72267,0 c -0.09,1.6732 -0.6657,3.2654 -1.72715,4.7767 -1.0615,1.5112 -2.4828,2.7166 -4.2639,3.6162 -1.76315,0.8995 -3.63423,1.3493 -5.61324,1.3493 -3.97606,0 -7.1425,-1.3223 -9.49933,-3.967 -2.33886,-2.6627 -3.50828,-6.2969 -3.50828,-10.9027 l 0,-0.8366 c 0,-2.8425 0.52174,-5.3703 1.56523,-7.5832 1.04348,-2.21292 2.53675,-3.93107 4.4798,-5.1545 1.96103,-1.22337 4.27289,-1.83507 6.93559,-1.8351 3.27437,3e-5 5.99103,0.98055 8.14999,2.94156 2.17691,1.96106 3.33734,4.50684 3.48129,7.63724 l -4.72267,0 c -0.14396,-1.889 -0.8636,-3.4363 -2.15894,-4.64172 -1.27739,-1.22337 -2.86061,-1.83507 -4.74967,-1.83509 -2.53677,2e-5 -4.50679,0.91757 -5.91009,2.75261 -1.38533,1.8172 -2.07799,4.4529 -2.07798,7.9071 l 0,0.9446 c -1e-5,3.3643 0.69265,5.9551 2.07798,7.7722 1.3853,1.8171 3.36433,2.7256 5.93708,2.7256"
       style="font-size:55.26883316px;font-style:normal;font-variant:normal;font-weight:normal;font-stretch:normal;line-height:125%;letter-spacing:0px;word-spacing:0px;fill:#ffffff;fill-opacity:1;stroke:#fbffff;stroke-width:1.45236373;stroke-opacity:1;font-family:Roboto;-inkscape-font-specification:Roboto" />
    <path
       inkscape:connector-curvature="0"
       id="path3980"
       d="m 329.12038,1023.5085 -4.99255,0 0,-29.19966 4.99255,0 0,29.19966"
       style="font-size:55.26883316px;font-style:normal;font-variant:normal;font-weight:normal;font-stretch:normal;line-height:125%;letter-spacing:0px;word-spacing:0px;fill:#ffffff;fill-opacity:1;stroke:#fbffff;stroke-width:1.45236373;stroke-opacity:1;font-family:Roboto;-inkscape-font-specification:Roboto" />
    <path
       inkscape:connector-curvature="0"
       id="path3978"
       d="m 323.72303,986.56364 c 0,-0.80956 0.24288,-1.49322 0.72864,-2.05099 0.50375,-0.55768 1.24139,-0.83655 2.21291,-0.83659 0.97152,4e-5 1.70916,0.27891 2.21292,0.83659 0.50374,0.55777 0.75561,1.24143 0.75562,2.05099 -1e-5,0.80964 -0.25188,1.48431 -0.75562,2.02401 -0.50376,0.53977 -1.2414,0.80964 -2.21292,0.8096 -0.97152,4e-5 -1.70916,-0.26983 -2.21291,-0.8096 -0.48576,-0.5397 -0.72864,-1.21437 -0.72864,-2.02401"
       style="font-size:55.26883316px;font-style:normal;font-variant:normal;font-weight:normal;font-stretch:normal;line-height:125%;letter-spacing:0px;word-spacing:0px;fill:#ffffff;fill-opacity:1;stroke:#fbffff;stroke-width:1.45236373;stroke-opacity:1;font-family:Roboto;-inkscape-font-specification:Roboto" />
    <path
       inkscape:connector-curvature="0"
       id="path3976"
       d="m 319.13529,998.78863 c -0.75565,-0.12591 -1.57425,-0.18888 -2.4558,-0.1889 -3.2744,2e-5 -5.49631,1.39434 -6.66572,4.18297 l 0,20.7258 -4.99255,0 0,-29.19966 4.85762,0 0.081,3.37334 c 1.63718,-2.60869 3.95804,-3.91305 6.96257,-3.91308 0.97151,3e-5 1.70915,0.12597 2.21292,0.37782 l 0,4.64171"
       style="font-size:55.26883316px;font-style:normal;font-variant:normal;font-weight:normal;font-stretch:normal;line-height:125%;letter-spacing:0px;word-spacing:0px;fill:#ffffff;fill-opacity:1;stroke:#fbffff;stroke-width:1.45236373;stroke-opacity:1;font-family:Roboto;-inkscape-font-specification:Roboto" />
    <path
       id="path3972"
       style="font-size:55.26883316px;font-style:normal;font-variant:normal;font-weight:normal;font-stretch:normal;line-height:125%;letter-spacing:0px;word-spacing:0px;fill:#ffffff;fill-opacity:1;stroke:#fbffff;stroke-width:1.45236373;stroke-opacity:1;font-family:Roboto;-inkscape-font-specification:Roboto"
       d="m 287.26394,997.87109 c -2.01502,2e-5 -3.70619,0.73766 -5.07351,2.21291 -1.36733,1.4573 -2.21292,3.5083 -2.53675,6.153 l 14.62681,0 0,-0.3778 c -0.14395,-2.5368 -0.82761,-4.4978 -2.05099,-5.88315 -1.22342,-1.40328 -2.8786,-2.10494 -4.96556,-2.10496 m 0.6207,26.17711 c -3.95807,0 -7.17848,-1.2953 -9.66126,-3.8861 -2.48278,-2.6087 -3.72417,-6.09 -3.72417,-10.4438 l 0,-0.9176 c 0,-2.8965 0.54873,-5.4783 1.6462,-7.7452 1.11544,-2.28483 2.66268,-4.06595 4.64171,-5.34335 1.99701,-1.29534 4.15595,-1.94302 6.47682,-1.94305 3.79612,3e-5 6.74666,1.25042 8.85165,3.75116 2.10494,2.50084 3.15742,6.08104 3.15745,10.74074 l 0,2.078 -19.78128,0 c 0.072,2.8786 0.90855,5.2084 2.50977,6.9895 1.61919,1.7632 3.67018,2.6447 6.15297,2.6447 1.76312,0 3.25638,-0.3598 4.4798,-1.0794 1.22338,-0.7197 2.29385,-1.6732 3.21142,-2.8606 l 3.0495,2.3748 c -2.44682,3.7601 -6.11701,5.6402 -11.01058,5.6402" />
    <path
       inkscape:connector-curvature="0"
       id="path3970"
       d="m 231.99511,994.30884 0.13494,3.2384 c 2.14093,-2.51873 5.02851,-3.77811 8.66274,-3.77814 4.08397,3e-5 6.8636,1.56526 8.3389,4.69569 0.9715,-1.40328 2.23088,-2.53672 3.77814,-3.40032 1.5652,-0.86355 3.40929,-1.29534 5.53228,-1.29537 6.40481,3e-5 9.66121,3.39136 9.7692,10.174 l 0,19.5654 -4.99254,0 0,-19.2685 c -4e-5,-2.087 -0.47681,-3.6432 -1.4303,-4.66875 -0.95357,-1.04346 -2.55478,-1.56521 -4.80364,-1.56523 -1.85312,2e-5 -3.39136,0.55775 -4.61473,1.67318 -1.22343,1.0975 -1.93408,2.5817 -2.13195,4.4528 l 0,19.3765 -5.01954,0 0,-19.1336 c -2e-5,-4.2459 -2.07799,-6.36886 -6.23393,-6.36888 -3.27441,2e-5 -5.5143,1.39434 -6.7197,4.18298 l 0,21.3195 -4.99255,0 0,-29.19966 4.72268,0"
       style="font-size:55.26883316px;font-style:normal;font-variant:normal;font-weight:normal;font-stretch:normal;line-height:125%;letter-spacing:0px;word-spacing:0px;fill:#ffffff;fill-opacity:1;stroke:#fbffff;stroke-width:1.45236373;stroke-opacity:1;font-family:Roboto;-inkscape-font-specification:Roboto" />
    <path
       id="path3966"
       style="font-size:55.26883316px;font-style:normal;font-variant:normal;font-weight:normal;font-stretch:normal;line-height:125%;letter-spacing:0px;word-spacing:0px;fill:#ffffff;fill-opacity:1;stroke:#fbffff;stroke-width:1.45236373;stroke-opacity:1;font-family:Roboto;-inkscape-font-specification:Roboto"
       d="m 206.92444,1019.7034 c 1.56521,0 3.04948,-0.4048 4.45281,-1.2144 1.40329,-0.8096 2.41979,-1.8621 3.0495,-3.1575 l 0,-5.9911 -3.91308,0 c -6.117,10e-5 -9.17549,1.7902 -9.17549,5.3704 0,1.5652 0.52174,2.7886 1.56523,3.6702 1.04348,0.8816 2.38382,1.3224 4.02103,1.3224 m 8.28493,3.8051 c -0.28788,-0.5757 -0.52177,-1.6012 -0.70166,-3.0765 -2.32088,2.4108 -5.09151,3.6162 -8.31191,3.6162 -2.8786,0 -5.24443,-0.8096 -7.09752,-2.4288 -1.8351,-1.6372 -2.75265,-3.7062 -2.75264,-6.2069 -1e-5,-3.0405 1.15143,-5.3974 3.4543,-7.0706 2.32085,-1.6911 5.57725,-2.5367 9.7692,-2.5367 l 4.85761,0 0,-2.2939 c -2e-5,-1.7451 -0.52176,-3.1304 -1.56523,-4.15594 -1.04351,-1.04347 -2.58175,-1.56521 -4.61473,-1.56523 -1.78114,2e-5 -3.2744,0.4498 -4.4798,1.34933 -1.20542,0.89954 -1.80812,1.98804 -1.80811,3.26544 l -5.01953,0 c -1e-5,-1.4573 0.51274,-2.86061 1.53824,-4.20997 1.04348,-1.3673 2.44679,-2.44677 4.20993,-3.23841 1.78111,-0.79158 3.73315,-1.18739 5.85612,-1.18742 3.36433,3e-5 6.00003,0.84562 7.90711,2.53676 1.90704,1.6732 2.89656,3.98504 2.96855,6.93554 l 0,13.4394 c -3e-5,2.6807 0.3418,4.8127 1.02549,6.3959 l 0,0.4318 -5.23542,0" />
    <path
       inkscape:connector-curvature="0"
       id="path3964"
       d="m 193.70094,998.78863 c -0.75565,-0.12591 -1.57425,-0.18888 -2.4558,-0.1889 -3.2744,2e-5 -5.4963,1.39434 -6.66572,4.18297 l 0,20.7258 -4.99255,0 0,-29.19966 4.85762,0 0.081,3.37334 c 1.63718,-2.60869 3.95804,-3.91305 6.96257,-3.91308 0.97151,3e-5 1.70915,0.12597 2.21292,0.37782 l 0,4.64171"
       style="font-size:55.26883316px;font-style:normal;font-variant:normal;font-weight:normal;font-stretch:normal;line-height:125%;letter-spacing:0px;word-spacing:0px;fill:#ffffff;fill-opacity:1;stroke:#fbffff;stroke-width:1.45236373;stroke-opacity:1;font-family:Roboto;-inkscape-font-specification:Roboto" />
    <path
       inkscape:connector-curvature="0"
       id="path3962"
       d="m 167.17298,1020.6209 c -1.94307,2.2849 -4.79466,3.4273 -8.5548,3.4273 -3.11248,0 -5.48731,-0.8995 -7.1245,-2.6987 -1.6192,-1.8171 -2.4378,-4.4977 -2.45579,-8.042 l 0,-18.99866 4.99255,0 0,18.86376 c -1e-5,4.4258 1.7991,6.6387 5.39734,6.6387 3.81411,0 6.35086,-1.4213 7.61026,-4.2639 l 0,-21.23856 4.99255,0 0,29.19966 -4.74967,0 -0.10794,-2.8876"
       style="font-size:55.26883316px;font-style:normal;font-variant:normal;font-weight:normal;font-stretch:normal;line-height:125%;letter-spacing:0px;word-spacing:0px;fill:#ffffff;fill-opacity:1;stroke:#fbffff;stroke-width:1.45236373;stroke-opacity:1;font-family:Roboto;-inkscape-font-specification:Roboto" />
    <path
       inkscape:connector-curvature="0"
       id="path3957"
       d="m 128.68989,1005.9941 c -4.44382,-1.2774 -7.68223,-2.8426 -9.71522,-4.6957 -2.01501,-1.87106 -3.02252,-4.17392 -3.02251,-6.9086 -1e-5,-3.09445 1.23238,-5.64919 3.69718,-7.66424 2.48277,-2.03296 5.70318,-3.04946 9.66125,-3.0495 2.69865,4e-5 5.10047,0.52179 7.20546,1.56523 2.12293,1.04353 3.76012,2.48282 4.91158,4.31788 1.1694,1.83513 1.75411,3.84114 1.75414,6.01804 l -5.20844,0 c -2e-5,-2.3748 -0.75565,-4.23688 -2.26688,-5.58625 -1.51128,-1.36729 -3.64323,-2.05096 -6.39586,-2.05099 -2.55476,3e-5 -4.55178,0.56675 -5.99106,1.70016 -1.42131,1.11549 -2.13196,2.67172 -2.13195,4.66871 -1e-5,1.60124 0.67466,2.95957 2.02401,4.07499 1.36731,1.09749 3.67917,2.10497 6.93559,3.02247 3.27437,0.9176 5.82911,1.9341 7.66423,3.0495 1.85306,1.0975 3.22039,2.3839 4.10198,3.8592 0.89953,1.4752 1.34931,3.2114 1.34934,5.2084 -3e-5,3.1844 -1.24142,5.7392 -3.72417,7.6642 -2.4828,1.9071 -5.80217,2.8606 -9.9581,2.8606 -2.69869,0 -5.21745,-0.5127 -7.55629,-1.5382 -2.33886,-1.0435 -4.14697,-2.4648 -5.42433,-4.2639 -1.25939,-1.7991 -1.88908,-3.8411 -1.88907,-6.126 l 5.20844,0 c -1e-5,2.3748 0.87256,4.2549 2.61771,5.6402 1.76312,1.3673 4.11096,2.051 7.04354,2.051 2.73463,0 4.8306,-0.5577 6.28791,-1.6732 1.45725,-1.1154 2.1859,-2.6357 2.18592,-4.5607 -2e-5,-1.9251 -0.67469,-3.4093 -2.024,-4.4528 -1.34936,-1.0615 -3.79616,-2.105 -7.3404,-3.1305"
       style="font-size:55.26883316px;font-style:normal;font-variant:normal;font-weight:normal;font-stretch:normal;line-height:125%;letter-spacing:0px;word-spacing:0px;fill:#ffffff;fill-opacity:1;stroke:#fbffff;stroke-width:1.45236373;stroke-opacity:1;font-family:Roboto;-inkscape-font-specification:Roboto" />
    <path
       id="path4080"
       style="font-size:17.87471962px;font-style:italic;font-variant:normal;font-weight:normal;font-stretch:normal;line-height:125%;letter-spacing:0px;word-spacing:0px;fill:#ffffff;fill-opacity:1;stroke:none;font-family:Roboto;-inkscape-font-specification:Roboto Italic"
       d="m 382.56374,1037.0558 c -0.20947,1.0473 -0.13674,1.8881 0.2182,2.5224 0.36074,0.6342 0.94842,0.9513 1.76303,0.9513 0.82042,0 1.5361,-0.32 2.14706,-0.9601 0.61094,-0.6458 1.03279,-1.5477 1.26554,-2.7056 0.20947,-1.0357 0.13091,-1.8736 -0.23565,-2.5136 -0.36076,-0.6459 -0.94844,-0.9688 -1.76303,-0.9688 -0.79716,0 -1.50411,0.3171 -2.12088,0.9513 -0.61677,0.6342 -1.04153,1.5419 -1.27427,2.7231 m -1.58839,-0.192 c 0.1862,-0.9252 0.53531,-1.7572 1.04735,-2.4962 0.51203,-0.7389 1.13171,-1.3092 1.85904,-1.7107 0.72732,-0.4014 1.50701,-0.6022 2.33907,-0.6022 1.28591,0 2.23724,0.4451 2.85402,1.3354 0.61677,0.8902 0.77678,2.0743 0.48004,3.5522 l -0.0175,0.1135 c -0.1862,0.9193 -0.5295,1.7456 -1.02989,2.4787 -0.49459,0.7273 -1.11136,1.2947 -1.85031,1.702 -0.73315,0.4073 -1.52448,0.6109 -2.37399,0.6109 -1.28009,0 -2.22852,-0.4451 -2.84529,-1.3354 -0.61677,-0.8902 -0.77678,-2.0685 -0.48003,-3.5348 l 0.0174,-0.1134" />
    <path
       id="path4076"
       style="font-size:17.87471962px;font-style:italic;font-variant:normal;font-weight:normal;font-stretch:normal;line-height:125%;letter-spacing:0px;word-spacing:0px;fill:#ffffff;fill-opacity:1;stroke:none;font-family:Roboto;-inkscape-font-specification:Roboto Italic"
       d="m 372.58785,1037.0558 c -0.21529,1.0648 -0.16583,1.9027 0.14838,2.5136 0.3142,0.6052 0.86405,0.9077 1.64957,0.9077 1.01825,0 1.85903,-0.4625 2.52236,-1.3877 l 0.86406,-4.3116 c -0.31421,-0.9019 -0.96589,-1.3528 -1.95505,-1.3528 -0.78551,0 -1.46047,0.3055 -2.02487,0.9164 -0.56441,0.611 -0.96589,1.5158 -1.20445,2.7144 m -1.58847,-0.1833 c 0.29674,-1.4721 0.86987,-2.6416 1.71939,-3.5086 0.85533,-0.8728 1.84449,-1.3092 2.96748,-1.3092 1.15208,0 1.96959,0.4073 2.45254,1.2219 l 0.28802,-1.0473 1.47501,0 -1.84158,9.2166 c -0.24439,1.2219 -0.80006,2.1849 -1.66703,2.889 -0.86116,0.704 -1.90268,1.056 -3.12458,1.056 -0.68078,0 -1.31792,-0.1454 -1.91141,-0.4364 -0.5935,-0.2909 -1.01244,-0.6895 -1.25682,-1.1957 l 1.0299,-0.9688 c 0.52367,0.8554 1.2859,1.283 2.2867,1.283 0.78551,0 1.4401,-0.2211 1.96378,-0.6633 0.52948,-0.4422 0.87569,-1.0648 1.03862,-1.8678 l 0.16583,-0.8117 c -0.79716,0.7448 -1.75432,1.1172 -2.87148,1.1172 -1.10554,0 -1.91141,-0.4451 -2.41763,-1.3354 -0.50621,-0.8902 -0.60513,-2.1034 -0.29674,-3.6395" />
    <path
       inkscape:connector-curvature="0"
       id="path4074"
       d="m 370.72008,1033.6781 c -0.23275,-0.041 -0.49167,-0.061 -0.77678,-0.061 -1.05899,0 -1.86777,0.451 -2.42635,1.3528 l -1.3441,6.7031 -1.61466,0 1.88523,-9.4436 1.57102,0 -0.19202,1.091 c 0.69823,-0.8437 1.5332,-1.2656 2.50491,-1.2656 0.3142,0 0.54694,0.041 0.69823,0.1222 l -0.30548,1.5012"
       style="font-size:17.87471962px;font-style:italic;font-variant:normal;font-weight:normal;font-stretch:normal;line-height:125%;letter-spacing:0px;word-spacing:0px;fill:#ffffff;fill-opacity:1;stroke:none;font-family:Roboto;-inkscape-font-specification:Roboto Italic" />
    <path
       id="path4070"
       style="font-size:17.87471962px;font-style:italic;font-variant:normal;font-weight:normal;font-stretch:normal;line-height:125%;letter-spacing:0px;word-spacing:0px;fill:#ffffff;fill-opacity:1;stroke:none;font-family:Roboto;-inkscape-font-specification:Roboto Italic"
       d="m 358.21297,1040.4422 c 0.50621,0 1.01243,-0.1309 1.51865,-0.3927 0.50621,-0.2619 0.90478,-0.6023 1.19572,-1.0212 l 0.38403,-1.9376 -1.26555,0 c -1.97832,0 -3.08385,0.579 -3.31659,1.7369 -0.0989,0.5062 -0.009,0.9018 0.27056,1.187 0.27929,0.2851 0.68368,0.4276 1.21318,0.4276 m 2.43513,1.2307 c -0.0582,-0.1862 -0.0669,-0.5179 -0.0262,-0.995 -0.9077,0.7797 -1.88232,1.1695 -2.92384,1.1695 -0.93098,0 -1.64375,-0.2618 -2.13833,-0.7855 -0.48877,-0.5295 -0.65169,-1.1986 -0.48876,-2.0074 0.19783,-0.9834 0.72441,-1.7456 1.57974,-2.2867 0.85533,-0.547 1.96087,-0.8204 3.3166,-0.8204 l 1.57102,0 0.14838,-0.7419 c 0.11636,-0.5644 0.0378,-1.0124 -0.23566,-1.3441 -0.26766,-0.3375 -0.73024,-0.5062 -1.38773,-0.5062 -0.57605,0 -1.08808,0.1454 -1.53611,0.4364 -0.44804,0.2909 -0.71569,0.6429 -0.80297,1.056 l -1.62338,0 c 0.0989,-0.4713 0.35784,-0.9251 0.77678,-1.3615 0.42475,-0.4422 0.94843,-0.7913 1.57102,-1.0474 0.62258,-0.256 1.27717,-0.384 1.96377,-0.384 1.08807,0 1.88522,0.2735 2.39145,0.8204 0.51202,0.5412 0.68367,1.2889 0.51494,2.2431 l -0.86406,4.3465 c -0.17457,0.867 -0.20366,1.5565 -0.0873,2.0685 l -0.0262,0.1397 -1.69321,0" />
    <path
       inkscape:connector-curvature="0"
       id="path4068"
       d="m 353.59596,1037.6406 c -0.42477,1.3441 -1.12881,2.3827 -2.11215,3.1158 -0.97753,0.7273 -2.1587,1.091 -3.54352,1.091 -1.5012,0 -2.59801,-0.5382 -3.29041,-1.6147 -0.6866,-1.0764 -0.84952,-2.5165 -0.48877,-4.3203 l 0.24438,-1.2219 c 0.23856,-1.1811 0.6575,-2.2197 1.25682,-3.1158 0.59931,-0.8961 1.33245,-1.5827 2.19943,-2.0598 0.87278,-0.4829 1.8183,-0.7244 2.83656,-0.7244 1.34991,0 2.35652,0.3782 3.01985,1.1346 0.66331,0.7506 0.93097,1.7921 0.80297,3.1246 l -1.68448,0 c 0.0523,-1.0124 -0.1193,-1.7456 -0.51495,-2.1994 -0.38985,-0.4539 -1.02117,-0.6808 -1.89395,-0.6808 -1.07063,0 -1.98997,0.3957 -2.75801,1.187 -0.76806,0.7913 -1.29756,1.9172 -1.58848,3.3777 l -0.24438,1.2306 c -0.2793,1.379 -0.21238,2.4758 0.20074,3.2904 0.41312,0.8146 1.13753,1.2219 2.17324,1.2219 0.93097,0 1.68739,-0.2094 2.26926,-0.6284 0.58185,-0.4247 1.05897,-1.1608 1.43137,-2.2081 l 1.68448,0"
       style="font-size:17.87471962px;font-style:italic;font-variant:normal;font-weight:normal;font-stretch:normal;line-height:125%;letter-spacing:0px;word-spacing:0px;fill:#ffffff;fill-opacity:1;stroke:none;font-family:Roboto;-inkscape-font-specification:Roboto Italic" />
    <path
       inkscape:connector-curvature="0"
       id="path4066"
       d="m 335.53795,1039.1679 c 0.0873,-0.4363 -0.009,-0.7738 -0.28802,-1.0124 -0.2793,-0.2444 -0.8117,-0.4538 -1.5972,-0.6284 -0.7797,-0.1745 -1.38483,-0.384 -1.8154,-0.6284 -0.43058,-0.2444 -0.72733,-0.5353 -0.89025,-0.8728 -0.16292,-0.3375 -0.19783,-0.7389 -0.10473,-1.2044 0.1571,-0.7739 0.61386,-1.4285 1.37028,-1.9638 0.76223,-0.5353 1.65247,-0.803 2.67073,-0.803 1.07062,0 1.88231,0.2764 2.43508,0.8292 0.55858,0.5527 0.7535,1.2597 0.58477,2.1208 l -1.62339,0 c 0.0873,-0.4422 -0.0262,-0.8233 -0.34038,-1.1433 -0.3084,-0.32 -0.7477,-0.48 -1.31791,-0.48 -0.58769,0 -1.07354,0.128 -1.45756,0.384 -0.38403,0.256 -0.61678,0.5906 -0.69823,1.0037 -0.0756,0.3898 0.0204,0.6837 0.28802,0.8815 0.26765,0.1978 0.7855,0.3869 1.55356,0.5673 0.77387,0.1804 1.38482,0.3957 1.83286,0.6459 0.45384,0.2502 0.76513,0.5528 0.93388,0.9077 0.16873,0.3491 0.20364,0.7768 0.10474,1.283 -0.16875,0.8437 -0.64297,1.5215 -1.42265,2.0336 -0.77388,0.5062 -1.69903,0.7593 -2.77547,0.7593 -0.75642,0 -1.39937,-0.1338 -1.92886,-0.4015 -0.5295,-0.2676 -0.91061,-0.64 -1.14336,-1.1171 -0.23274,-0.483 -0.29093,-1.0037 -0.17455,-1.5623 l 1.61466,0 c -0.0815,0.5411 0.0465,0.9717 0.38402,1.2917 0.3433,0.3142 0.8466,0.4713 1.50993,0.4713 0.61095,0 1.12589,-0.1222 1.54484,-0.3666 0.41893,-0.2502 0.66913,-0.5818 0.75059,-0.995"
       style="font-size:17.87471962px;font-style:italic;font-variant:normal;font-weight:normal;font-stretch:normal;line-height:125%;letter-spacing:0px;word-spacing:0px;fill:#ffffff;fill-opacity:1;stroke:none;font-family:Roboto;-inkscape-font-specification:Roboto Italic" />
    <path
       inkscape:connector-curvature="0"
       id="path4064"
       d="m 326.3213,1039.1679 c 0.0873,-0.4363 -0.009,-0.7738 -0.28802,-1.0124 -0.2793,-0.2444 -0.8117,-0.4538 -1.5972,-0.6284 -0.7797,-0.1745 -1.38483,-0.384 -1.8154,-0.6284 -0.43058,-0.2444 -0.72733,-0.5353 -0.89025,-0.8728 -0.16292,-0.3375 -0.19783,-0.7389 -0.10473,-1.2044 0.1571,-0.7739 0.61386,-1.4285 1.37028,-1.9638 0.76223,-0.5353 1.65247,-0.803 2.67073,-0.803 1.07061,0 1.88231,0.2764 2.43508,0.8292 0.55858,0.5527 0.7535,1.2597 0.58477,2.1208 l -1.62339,0 c 0.0873,-0.4422 -0.0262,-0.8233 -0.34039,-1.1433 -0.30839,-0.32 -0.74769,-0.48 -1.31791,-0.48 -0.58768,0 -1.07353,0.128 -1.45755,0.384 -0.38404,0.256 -0.61678,0.5906 -0.69824,1.0037 -0.0756,0.3898 0.0204,0.6837 0.28802,0.8815 0.26766,0.1978 0.78551,0.3869 1.55357,0.5673 0.77387,0.1804 1.38482,0.3957 1.83286,0.6459 0.45384,0.2502 0.76513,0.5528 0.93388,0.9077 0.16873,0.3491 0.20364,0.7768 0.10474,1.283 -0.16875,0.8437 -0.64297,1.5215 -1.42265,2.0336 -0.77388,0.5062 -1.69904,0.7593 -2.77547,0.7593 -0.75642,0 -1.39938,-0.1338 -1.92886,-0.4015 -0.5295,-0.2676 -0.91062,-0.64 -1.14336,-1.1171 -0.23274,-0.483 -0.29093,-1.0037 -0.17456,-1.5623 l 1.61466,0 c -0.0815,0.5411 0.0465,0.9717 0.38403,1.2917 0.34329,0.3142 0.8466,0.4713 1.50993,0.4713 0.61094,0 1.12589,-0.1222 1.54483,-0.3666 0.41894,-0.2502 0.66913,-0.5818 0.7506,-0.995"
       style="font-size:17.87471962px;font-style:italic;font-variant:normal;font-weight:normal;font-stretch:normal;line-height:125%;letter-spacing:0px;word-spacing:0px;fill:#ffffff;fill-opacity:1;stroke:none;font-family:Roboto;-inkscape-font-specification:Roboto Italic" />
    <path
       id="path4060"
       style="font-size:17.87471962px;font-style:italic;font-variant:normal;font-weight:normal;font-stretch:normal;line-height:125%;letter-spacing:0px;word-spacing:0px;fill:#ffffff;fill-opacity:1;stroke:none;font-family:Roboto;-inkscape-font-specification:Roboto Italic"
       d="m 316.24059,1033.3814 c -0.65169,0 -1.2481,0.2385 -1.78922,0.7156 -0.53531,0.4714 -0.93971,1.1347 -1.21318,1.99 l 4.73052,0 0.0262,-0.1222 c 0.11637,-0.8204 0.0204,-1.4546 -0.28802,-1.9027 -0.30257,-0.4538 -0.79133,-0.6807 -1.46628,-0.6807 m -1.49249,8.466 c -1.2801,0 -2.23725,-0.4189 -2.87148,-1.2568 -0.63422,-0.8437 -0.81169,-1.9696 -0.5324,-3.3777 l 0.0611,-0.2967 c 0.18619,-0.9368 0.5324,-1.7718 1.03862,-2.505 0.50621,-0.7389 1.12007,-1.3149 1.84158,-1.7281 0.72732,-0.4189 1.46628,-0.6284 2.21689,-0.6284 1.22771,0 2.1005,0.4044 2.61836,1.2132 0.52367,0.8088 0.63422,1.9667 0.33166,3.4737 l -0.13092,0.672 -6.39754,0 c -0.16292,0.931 -0.0436,1.6845 0.35784,2.2606 0.4073,0.5702 1.01243,0.8553 1.8154,0.8553 0.57022,0 1.07644,-0.1164 1.51866,-0.3491 0.4422,-0.2328 0.8495,-0.5411 1.2219,-0.9252 l 0.83788,0.7681 c -1.03572,1.2161 -2.3449,1.8241 -3.92755,1.8241" />
    <path
       inkscape:connector-curvature="0"
       id="path4058"
       d="m 311.16096,1033.6781 c -0.23275,-0.041 -0.49168,-0.061 -0.77678,-0.061 -1.05899,0 -1.86778,0.451 -2.42636,1.3528 l -1.34409,6.7031 -1.61466,0 1.88522,-9.4436 1.57102,0 -0.19201,1.091 c 0.69822,-0.8437 1.53319,-1.2656 2.5049,-1.2656 0.3142,0 0.54694,0.041 0.69823,0.1222 l -0.30547,1.5012"
       style="font-size:17.87471962px;font-style:italic;font-variant:normal;font-weight:normal;font-stretch:normal;line-height:125%;letter-spacing:0px;word-spacing:0px;fill:#ffffff;fill-opacity:1;stroke:none;font-family:Roboto;-inkscape-font-specification:Roboto Italic" />
    <path
       id="path4054"
       style="font-size:17.87471962px;font-style:italic;font-variant:normal;font-weight:normal;font-stretch:normal;line-height:125%;letter-spacing:0px;word-spacing:0px;fill:#ffffff;fill-opacity:1;stroke:none;font-family:Roboto;-inkscape-font-specification:Roboto Italic"
       d="m 302.30213,1036.8725 c 0.21528,-1.0648 0.15709,-1.9056 -0.17456,-2.5223 -0.33167,-0.6168 -0.89316,-0.9252 -1.68448,-0.9252 -0.97753,0 -1.79795,0.4335 -2.46127,1.3005 l -0.89897,4.5123 c 0.30838,0.8611 0.96007,1.2917 1.95505,1.2917 0.77387,0 1.44882,-0.3055 2.02487,-0.9164 0.58185,-0.6168 0.99497,-1.5303 1.23936,-2.7406 m 1.57977,0.1833 c -0.29094,1.4372 -0.85243,2.5951 -1.68448,3.4737 -0.83207,0.8786 -1.80959,1.3179 -2.93258,1.3179 -1.14626,0 -1.97541,-0.3637 -2.48744,-1.091 l -0.90771,4.5473 -1.61465,0 2.60963,-13.0744 1.47502,0 -0.13092,1.0473 c 0.82042,-0.8146 1.81539,-1.2219 2.98494,-1.2219 1.13462,0 1.94631,0.4277 2.43508,1.283 0.49457,0.8554 0.58767,2.0453 0.27929,3.5697 l -0.0262,0.1484" />
    <path
       inkscape:connector-curvature="0"
       id="path4052"
       d="m 290.47586,1035.6768 2.78419,-3.4475 1.88523,0 -4.02356,4.6694 2.23434,4.7742 -1.86777,0 -1.47501,-3.5348 -2.88893,3.5348 -1.8765,0 4.13702,-4.7742 -2.15579,-4.6694 1.86777,0 1.37901,3.4475"
       style="font-size:17.87471962px;font-style:italic;font-variant:normal;font-weight:normal;font-stretch:normal;line-height:125%;letter-spacing:0px;word-spacing:0px;fill:#ffffff;fill-opacity:1;stroke:none;font-family:Roboto;-inkscape-font-specification:Roboto Italic" />
    <path
       inkscape:connector-curvature="0"
       id="path4047"
       d="m 284.56708,1035.799 -5.5073,0 -0.9077,4.5036 6.39754,0 -0.27056,1.3703 -8.0733,0 2.53981,-12.7079 7.98602,0 -0.27056,1.379 -6.31027,0 -0.82042,4.0847 5.5073,0 -0.27056,1.3703"
       style="font-size:17.87471962px;font-style:italic;font-variant:normal;font-weight:normal;font-stretch:normal;line-height:125%;letter-spacing:0px;word-spacing:0px;fill:#ffffff;fill-opacity:1;stroke:none;font-family:Roboto;-inkscape-font-specification:Roboto Italic" />
  </g>
</svg>
