<?xml version="1.0" encoding="UTF-8" standalone="no"?>
<!-- Created with Inkscape (http://www.inkscape.org/) -->

<svg
   xmlns:dc="http://purl.org/dc/elements/1.1/"
   xmlns:cc="http://creativecommons.org/ns#"
   xmlns:rdf="http://www.w3.org/1999/02/22-rdf-syntax-ns#"
   xmlns:svg="http://www.w3.org/2000/svg"
   xmlns="http://www.w3.org/2000/svg"
   xmlns:sodipodi="http://sodipodi.sourceforge.net/DTD/sodipodi-0.dtd"
   xmlns:inkscape="http://www.inkscape.org/namespaces/inkscape"
   width="50"
   height="100"
   id="svg3053"
   version="1.1"
   inkscape:version="0.48.4 r9939"
   sodipodi:docname="logo-mini.svg">
  <defs
     id="defs3055">
    <clipPath
       clipPathUnits="userSpaceOnUse"
       id="clipPath2995">
      <rect
         style="fill:#00005e;fill-opacity:1;stroke:none"
         id="rect2997"
         width="95.199997"
         height="157.37143"
         x="-163.78784"
         y="245.5854"
         rx="19.746733"
         ry="19.746733"
         transform="matrix(0.70710678,-0.70710678,0.70710678,0.70710678,0,0)" />
    </clipPath>
  </defs>
  <sodipodi:namedview
     id="base"
     pagecolor="#ffffff"
     bordercolor="#666666"
     borderopacity="1.0"
     inkscape:pageopacity="0.0"
     inkscape:pageshadow="2"
     inkscape:zoom="1.979899"
     inkscape:cx="-88.767767"
     inkscape:cy="78.624743"
     inkscape:document-units="px"
     inkscape:current-layer="layer1"
     showgrid="false"
     inkscape:window-width="1440"
     inkscape:window-height="844"
     inkscape:window-x="0"
     inkscape:window-y="27"
     inkscape:window-maximized="1" />
  <metadata
     id="metadata3058">
    <rdf:RDF>
      <cc:Work
         rdf:about="">
        <dc:format>image/svg+xml</dc:format>
        <dc:type
           rdf:resource="http://purl.org/dc/dcmitype/StillImage" />
        <dc:title></dc:title>
      </cc:Work>
    </rdf:RDF>
  </metadata>
  <g
     inkscape:label="Capa 1"
     inkscape:groupmode="layer"
     id="layer1"
     transform="translate(0,-952.36218)">
    <g
       style="fill:#8bc860;fill-opacity:1"
       transform="matrix(0.73529412,0.73529412,-0.73529412,0.73529412,170.3169,665.66721)"
       id="g3808"
       clip-path="url(#clipPath2995)">
      <rect
         style="fill:#8bc860;fill-opacity:1;stroke:none"
         id="rect3810"
         width="20"
         height="20"
         x="78.791901"
         y="311.11325" />
      <rect
         y="311.11325"
         x="78.791901"
         height="20"
         width="20"
         id="rect3812"
         style="fill:#8bc860;fill-opacity:1;stroke:none" />
      <rect
         style="fill:#8bc860;fill-opacity:1;stroke:none"
         id="rect3814"
         width="20"
         height="20"
         x="102.7919"
         y="335.11325" />
      <rect
         y="335.11325"
         x="126.7919"
         height="20"
         width="20"
         id="rect3816"
         style="fill:#8bc860;fill-opacity:1;stroke:none" />
      <rect
         style="fill:#8bc860;fill-opacity:1;stroke:none"
         id="rect3818"
         width="20"
         height="20"
         x="126.7919"
         y="359.11325" />
      <rect
         y="359.11325"
         x="102.7919"
         height="20"
         width="20"
         id="rect3820"
         style="fill:#8bc860;fill-opacity:1;stroke:none" />
      <rect
         style="fill:#8bc860;fill-opacity:1;stroke:none"
         id="rect3822"
         width="20"
         height="20"
         x="102.7919"
         y="311.11325" />
      <rect
         y="335.11325"
         x="78.791901"
         height="20"
         width="20"
         id="rect3824"
         style="fill:#8bc860;fill-opacity:1;stroke:none" />
      <rect
         style="fill:#8bc860;fill-opacity:1;stroke:none"
         id="rect3826"
         width="20"
         height="20"
         x="78.791901"
         y="359.11325" />
      <rect
         y="311.11325"
         x="126.7919"
         height="20"
         width="20"
         id="rect3828"
         style="fill:#8bc860;fill-opacity:1;stroke:none" />
    </g>
  </g>
</svg>
